%YAML 1.1
%TAG !u! tag:unity3d.com,2011:
--- !u!1045 &1
EditorBuildSettings:
  m_ObjectHideFlags: 0
  serializedVersion: 2
  m_Scenes:
  - enabled: 1
    path: Assets/Scenes/MainMenu.unity
    guid: 459572908e5a7f04ab2a67380706b0bb
  - enabled: 1
    path: Assets/Scenes/SampleScene.unity
    guid: 9fc0d4010bbf28b4594072e72b8655ab
  - enabled: 1
    path: Assets/Scenes/LoseScreen.unity
    guid: 9b3fd0148c0b9274c86b17d9307b9e8f
  m_configObjects: {}
